DEMOS - T5: Análisis de texto (II)
…
bigrams_separado<- amlo_bigrams %>%
  tidyr::separate(bigram, c("word1", "word2"), sep = " ")

bigrams_filtrado <- bigrams_separado %>%
  filter(!word1 %in% stop) %>%
  filter(!word2 %in% stop)

# new bigram counts:
bigram_conteo <- bigrams_filtrado %>% 
  count(word1, word2, sort = TRUE)

bigram_conteo

# A tibble: 600 × 3
   word1      word2          n
   <chr>      <chr>      <int>
 1 comisión   federal        6
 2 inversión  extranjera     4
 3 500        mil            3
 4 desarrollo nacional       3
 5 inversión  pública        3
 6 mercado    interno        3
 7 mil        500            3
 8 mil        barriles       3
 9 millones   500            3
10 tren       maya           3
# ℹ 590 more rows

bigram_conteo

# A tibble: 600 × 3
   word1      word2          n
   <chr>      <chr>      <int>
 1 comisión   federal        6
 2 inversión  extranjera     4
 3 500        mil            3
 4 desarrollo nacional       3
 5 inversión  pública        3
 6 mercado    interno        3
 7 mil        500            3
 8 mil        barriles       3
 9 millones   500            3
10 tren       maya           3
# ℹ 590 more rows
…
